[{
    "name": "ProjectX",
    "expanded": true,
    "children": [
        {
            "name": "css",
            "expanded": true,
            "children": [{
                "name": "style.css",
                "path": "source/css/style.css",
***REDACTED***
