{
  "project_info": {
    "project_number": "1065678221949",
    "firebase_url": "https://todoapp-bce6f.firebaseio.com",
    "project_id": "todoapp-bce6f",
    "storage_bucket": "todoapp-bce6f.appspot.com"
  },
  "client": [
    {
      "client_info": {
***REDACTED***
