{
    "classPrefix": "",
    "options": [
        "setClasses"
    ],
    "feature-detects": [
        "css/backgroundposition-shorthand",
        "css/backgroundposition-xy",
        "css/backgroundrepeat",
        "css/backgroundsizecover",
***REDACTED***
