{
  "categories": [
    {
      "key": "1",
      "thumb": "https://res.cloudinary.com/ionicfirebaseapp/image/upload/c_scale,h_110,w_200/v1483635730/shutterstock_211209340_hr5vjk.jpg",
      "title": "Beverages",
      "description": "Souvlaki features the fresh-tasting combination of lemon juice, garlic, and olive oil that is so prevalent in Greek cuisine",
      "price": 4,
      "date": "10/01/16"
    },
***REDACTED***
