{
  "TOTAL_ORDERS": "Total Orders",
  "PRODUCTS": "Products",
  "CATEGORIES": "Categories",
  "TOTAL_EARNINGS": "Total Earnings",
  "ADD_NEW_PRODUCT": "Add New Product",
  "NAME": "Name",
  "ENABLE": "Enable",
  "EDIT": "Edit",
  "VIEW": "View",
***REDACTED***
