[{
    "name": "Wing",
    "email": "tellus.eu.augue@arcu.com",
    "regDate": "2016-01-09T14:48:34-08:00",
    "city": "Paglieta",
    "age": 25
}, {
    "name": "Whitney",
    "email": "sed.dictum@Donec.org",
    "regDate": "2017-01-23T20:09:52-08:00",
***REDACTED***
