{
  "mails":[
    {
      "id": 10,
      "subject": "Admin web application",
      "from": {
        "name": "Evelyn Holmes", "email" : "evelyn@example.com",
        "avatar": "assets/img/user/01.jpg"
      },
      "to":[
***REDACTED***
