<svg xmlns="http://www.w3.org/2000/svg" width="24.966" height="14.336" viewBox="0 0 24.966 14.336">
  <path id="Icon_ionic-md-done-all" data-name="Icon ionic-md-done-all" d="M18.9,9.162l-1.5-1.5-6.819,6.793,1.5,1.5Zm4.564-1.5L12.08,18.951l-4.456-4.44-1.5,1.5L12.08,22,24.966,9.162ZM0,16.009,6.013,22l1.5-1.5L1.557,14.511Z" transform="translate(0 -7.664)" fill="#20c978"/>
</svg>
***REDACTED***
