<?xml version="1.0" standalone="no"?><!DOCTYPE svg PUBLIC
  "-//W3C//DTD SVG 1.1//EN" "http://www.w3.org/Graphics/SVG/1.1/DTD/svg11.dtd" >
<svg xmlns="http://www.w3.org/2000/svg">
  <metadata>Generated by Glyphter</metadata>
  <defs>
    <font id="Glyphter" horiz-adv-x="0">
      <font-face units-per-em="1024" ascent="1024" descent="0"
                 font-family="Glyphter" font-weight="normal"/>
      <missing-glyph horiz-adv-x="0"/>
      <glyph unicode="&#x0041;"
***REDACTED***
