{
  "project_info": {
    "project_number": "200204704844",
    "firebase_url": "https://groceries-c6e24.firebaseio.com",
    "project_id": "groceries-c6e24",
    "storage_bucket": "groceries-c6e24.appspot.com"
  },
  "client": [
    {
      "client_info": {
***REDACTED***
