{
	"social": [{
			"id": "0612",
			"name": "Raam Meena",
			"profilepic": "assets/images/profile.png",
			"date": " june 13, 2017",
			"image": "http://res.cloudinary.com/ujju/image/upload/c_scale,w_635/v1499925333/starter/group.jpg",
			"description": "This season get tro ready to explore idea coz I am commming with Lorem ipsum dolor sit amet, consectetur adipisicing"
		},

***REDACTED***
