{
    "extends": "../tslint.json",
    "rules": {
        "directive-selector": [
            true,
            "attribute",
            "app",
            "camelCase"
        ],
        "component-selector": [
***REDACTED***
