[{
  "data": [
    [0, 84.97615362284705],
    [1, 89.58256649551913],
    [2, 88.72543630190194],
    [3, 90.35326039418578],
    [4, 85.86442805361003],
    [5, 86.32161418674514],
    [6, 83.93658145098016],
    [7, 87.06117173889652],
***REDACTED***
