{
  "swagger": "2.0",
  "info": {
    "description": "Restaurant Doucument.",
    "version": "1.0.0",
    "title": "Restaurant API"
  },
  "host": "restaurantrestapi.herokuapp.com",
  "basePath": "/",
  "tags": [{
***REDACTED***
