<svg xmlns="http://www.w3.org/2000/svg" width="45" height="45" viewBox="0 0 45 45">
  <g id="logout" transform="translate(-13428 157)">
    <rect id="Rectangle_1327" data-name="Rectangle 1327" width="45" height="45" transform="translate(13428 -157)" fill="none"/>
    <g id="power-button" transform="translate(13426 -148)">
      <g id="Group_2632" data-name="Group 2632" transform="translate(23.696)">
        <g id="Group_2631" data-name="Group 2631" transform="translate(0)">
          <rect id="Rectangle_1389" data-name="Rectangle 1389" width="2" height="12" fill="#f44242"/>
        </g>
      </g>
      <g id="Group_2634" data-name="Group 2634" transform="translate(11 1.3)">
***REDACTED***
