<?xml version="1.0" encoding="utf-8"?>
<!-- Generator: Adobe Illustrator 16.0.0, SVG Export Plug-In . SVG Version: 6.00 Build 0)  -->
<!DOCTYPE svg PUBLIC "-//W3C//DTD SVG 1.1//EN" "http://www.w3.org/Graphics/SVG/1.1/DTD/svg11.dtd">
<svg version="1.1" id="Layer_1" xmlns="http://www.w3.org/2000/svg" xmlns:xlink="http://www.w3.org/1999/xlink" x="0px" y="0px"
	 width="16px" height="32px" viewBox="0 0 16 32" enable-background="new 0 0 16 32" xml:space="preserve">
<g transform="translate(0, 0)">
	<polygon fill="#967ADC" points="6,13.4 4.6,12 8.6,8 4.6,4 6,2.6 11.4,8 	"/>
</g>
<g transform="translate(0, 16)">
	<polygon fill="#DFDFDF" points="6,13.4 4.6,12 8.6,8 4.6,4 6,2.6 11.4,8 	"/>
***REDACTED***
