<?xml version="1.0" standalone="no"?>
<!DOCTYPE svg PUBLIC "-//W3C//DTD SVG 1.1//EN" "http://www.w3.org/Graphics/SVG/1.1/DTD/svg11.dtd" >
<svg xmlns="http://www.w3.org/2000/svg">
<metadata>Generated by IcoMoon</metadata>
<defs>
<font id="icomoon" horiz-adv-x="1024">
<font-face units-per-em="1024" ascent="960" descent="-64" />
<missing-glyph horiz-adv-x="1024" />
<glyph unicode="&#x20;" horiz-adv-x="512" d="" />
<glyph unicode="&#xe900;" glyph-name="buttons" d="M512 899.765c-120.671 0-234.119-46.992-319.446-132.319s-132.319-198.775-132.319-319.446c0-120.671 46.992-234.119 132.319-319.446s198.775-132.319 319.446-132.319c120.671 0 234.119 46.992 319.446 132.319s132.319 198.775 132.319 319.446c0 120.671-46.992 234.119-132.319 319.446s-198.775 132.319-319.446 132.319zM512 960c282.77 0 512-229.23 512-512s-229.23-512-512-512c-282.77 0-512 229.23-512 512s229.23 512 512 512z" />
***REDACTED***
