<?xml version="1.0" standalone="no"?>
<!DOCTYPE svg PUBLIC "-//W3C//DTD SVG 1.1//EN" "http://www.w3.org/Graphics/SVG/1.1/DTD/svg11.dtd" >
<svg xmlns="http://www.w3.org/2000/svg">
<metadata>Generated by IcoMoon</metadata>
<defs>
<font id="Pe-icon-7-stroke" horiz-adv-x="512">
<font-face units-per-em="512" ascent="480" descent="-32" />
<missing-glyph horiz-adv-x="512" />
<glyph unicode="&#x20;" d="" horiz-adv-x="256" />
<glyph unicode="&#xe600;" d="M447.892 343.42h-55.412v46.814c0 21.25-17.219 38.486-38.485 38.486h-264.23c-21.241 0-38.485-17.236-38.485-38.486v-358.126c0-7.089 5.739-12.828 12.828-12.828h383.783c7.081 0 12.828 5.739 12.828 12.828v298.483c0.001 7.089-5.746 12.829-12.827 12.829zM89.765 411.66h264.23c11.811 0 21.425-9.613 21.425-21.426v-46.814h-307.080v46.814c0 11.813 9.612 21.426 21.425 21.426zM443.66 36.34h-375.32v290.020h375.32v-290.020zM324.24 181.341c0-23.55 19.101-42.634 42.659-42.634s42.641 19.084 42.641 42.634c0 23.557-19.084 42.65-42.641 42.65s-42.659-19.092-42.659-42.65zM392.48 181.341c0-14.103-11.479-25.574-25.581-25.574-14.111 0-25.599 11.471-25.599 25.574 0 14.111 11.487 25.59 25.599 25.59 14.102 0 25.581-11.478 25.581-25.59z" />
***REDACTED***
