{
	"category": [{
			"id": "1",
			"title": "Clothing",
			"image": "http://res.cloudinary.com/ujju/image/upload/c_scale,w_682/v1499925341/starter/cloths.jpg"
		},
		{
			"id": "2",
			"title": "Restaurant",
			"image": "http://res.cloudinary.com/ddboxana4/image/upload/v1502106796/vnx6pasech2hjxduphdl.jpg"
***REDACTED***
