{
	"notifications": [{
			"id": "0010",
			"img": "assets/images/profile.png",
			"name": "Michel johnes",
			"time": "01:23pm",
			"description": "Michel johnes likes your pic."
		},
		{
			"id": "0020",
***REDACTED***
