<?xml version="1.0" standalone="no"?>
<!DOCTYPE svg PUBLIC "-//W3C//DTD SVG 1.1//EN"
  "http://www.w3.org/Graphics/SVG/1.1/DTD/svg11.dtd" >
<svg xmlns="http://www.w3.org/2000/svg">
  <metadata>
    Created by FontForge 20110222 at Sun Nov 11 15:34:13 2012
    By Vitaly,,,
    Copyright (C) 2012 by Daniel Bruce
  </metadata>
  <defs>
***REDACTED***
