<svg xmlns="http://www.w3.org/2000/svg" width="14.643" height="1" viewBox="0 0 14.643 1">
  <g id="minus" transform="translate(-6.701 -13.522)">
    <g id="Group_2111" data-name="Group 2111" transform="translate(7.201 14.022)">
      <line id="Line_145" data-name="Line 145" y1="13.643" transform="rotate(-90)" fill="none" stroke="#000" stroke-linecap="round" stroke-width="1"/>
    </g>
  </g>
</svg>
***REDACTED***
