{
  "images" : [
    {
      "idiom" : "universal",
      "filename" : "LaunchImage.png",
      "scale" : "1x"
    },
    {
      "idiom" : "universal",
      "filename" : "LaunchImage@2x.png",
***REDACTED***
