<svg xmlns="http://www.w3.org/2000/svg" width="25" height="25" viewBox="0 0 25 25">
  <g id="about_us" data-name="about us" transform="translate(-986 -1114)" opacity="0.6">
    <rect id="Rectangle_1326" data-name="Rectangle 1326" width="25" height="25" transform="translate(986 1114)" fill="none"/>
    <g id="group_1_" data-name="group (1)" transform="translate(987 1018.544)">
      <g id="Group_2403" data-name="Group 2403" transform="translate(8.189 102.947)">
        <g id="Group_2402" data-name="Group 2402" transform="translate(0 0)">
          <path id="Path_48" data-name="Path 48" d="M186.4,149.6a3.311,3.311,0,1,0,3.311,3.311A3.315,3.315,0,0,0,186.4,149.6Zm0,5.151a1.84,1.84,0,1,1,1.84-1.84A1.842,1.842,0,0,1,186.4,154.754Z" transform="translate(-183.089 -149.603)"/>
        </g>
      </g>
      <g id="Group_2405" data-name="Group 2405" transform="translate(6.57 108.686)">
***REDACTED***
