<svg xmlns="http://www.w3.org/2000/svg" width="25" height="25" viewBox="0 0 25 25">
  <g id="contact" transform="translate(-986 -1114)" opacity="0.6">
    <rect id="Rectangle_1326" data-name="Rectangle 1326" width="25" height="25" transform="translate(986 1114)" fill="none"/>
    <g id="telephone" transform="translate(987 1081.001)">
      <path id="Path_36" data-name="Path 36" d="M21.652,38.59h-6.4a.973.973,0,0,1,.6-.724,1.514,1.514,0,0,0,.911-1.435.45.45,0,0,0-.9,0c0,.412-.152.5-.485.7a1.788,1.788,0,0,0-1.034,1.459H8.985v-1.3A1.324,1.324,0,0,0,7.637,36H4.043a1.324,1.324,0,0,0-1.348,1.3v1.3H1.348A1.324,1.324,0,0,0,0,39.885V53.7A1.324,1.324,0,0,0,1.348,55h20.3A1.324,1.324,0,0,0,23,53.7V39.885A1.324,1.324,0,0,0,21.652,38.59Zm-18.059-1.3a.441.441,0,0,1,.449-.432H7.637a.441.441,0,0,1,.449.432V51.113a.441.441,0,0,1-.449.432H4.043a.441.441,0,0,1-.449-.432ZM22.1,53.7a.441.441,0,0,1-.449.432H1.348A.441.441,0,0,1,.9,53.7V39.885a.441.441,0,0,1,.449-.432H2.7V51.113a1.324,1.324,0,0,0,1.348,1.3H7.637a1.324,1.324,0,0,0,1.348-1.3V39.454H21.652a.441.441,0,0,1,.449.432Z"/>
      <path id="Path_37" data-name="Path 37" d="M254.139,171h-7.234a.9.9,0,0,0,0,1.809h7.234a.9.9,0,1,0,0-1.809Z" transform="translate(-235.028 -129.2)"/>
      <path id="Path_38" data-name="Path 38" d="M246.453,242.81h.9a.452.452,0,0,0,.452-.452v-.9a.452.452,0,0,0-.452-.452h-.9a.452.452,0,0,0-.452.452v.9A.452.452,0,0,0,246.453,242.81Z" transform="translate(-234.956 -196.191)"/>
      <path id="Path_39" data-name="Path 39" d="M326.453,242.81h.9a.452.452,0,0,0,.452-.452v-.9a.452.452,0,0,0-.452-.452h-.9a.452.452,0,0,0-.452.452v.9A.452.452,0,0,0,326.453,242.81Z" transform="translate(-311.364 -196.191)"/>
      <path id="Path_40" data-name="Path 40" d="M406.456,242.81h.9a.452.452,0,0,0,.452-.452v-.9a.452.452,0,0,0-.452-.452h-.9a.452.452,0,0,0-.452.452v.9A.452.452,0,0,0,406.456,242.81Z" transform="translate(-387.796 -196.191)"/>
      <path id="Path_41" data-name="Path 41" d="M246.453,302.811h.9a.452.452,0,0,0,.452-.452v-.9a.452.452,0,0,0-.452-.452h-.9a.452.452,0,0,0-.452.452v.9A.452.452,0,0,0,246.453,302.811Z" transform="translate(-234.956 -253.614)"/>
***REDACTED***
