<svg xmlns="http://www.w3.org/2000/svg" width="25" height="25" viewBox="0 0 25 25">
  <g id="logout" transform="translate(-986 -1114)" opacity="0.6">
    <rect id="Rectangle_1326" data-name="Rectangle 1326" width="25" height="25" transform="translate(986 1114)" fill="none"/>
    <g id="turn-on" transform="translate(977.313 1117)">
      <g id="Group_2415" data-name="Group 2415" transform="translate(11.687 1.321)">
        <g id="Group_2414" data-name="Group 2414" transform="translate(0)">
          <path id="Path_54" data-name="Path 54" d="M23.86,32.314a.874.874,0,0,0-1.074.557.815.815,0,0,0,.588,1.018,7.433,7.433,0,0,1,5.582,7.067,7.583,7.583,0,0,1-7.769,7.363,7.583,7.583,0,0,1-7.769-7.363A7.434,7.434,0,0,1,19,33.889a.815.815,0,0,0,.588-1.018.874.874,0,0,0-1.074-.557,9.089,9.089,0,0,0-6.827,8.642,9.257,9.257,0,0,0,9.5,9,9.257,9.257,0,0,0,9.5-9A9.09,9.09,0,0,0,23.86,32.314Z" transform="translate(-11.687 -32.281)"/>
        </g>
      </g>
      <g id="Group_2417" data-name="Group 2417" transform="translate(20.276)">
***REDACTED***
