<svg xmlns="http://www.w3.org/2000/svg" width="25" height="25" viewBox="0 0 25 25">
  <g id="your_orders" data-name="your orders" transform="translate(-986 -1114)" opacity="0.6">
    <rect id="Rectangle_1326" data-name="Rectangle 1326" width="25" height="25" transform="translate(986 1114)" fill="none"/>
    <g id="phone" transform="translate(989.137 1117.137)">
      <g id="Group_2426" data-name="Group 2426" transform="translate(0 0)">
        <g id="Group_2425" data-name="Group 2425">
          <path id="Path_56" data-name="Path 56" d="M17.417,5.7H13.3V1.583A1.585,1.585,0,0,0,11.717,0H1.583A1.585,1.585,0,0,0,0,1.583V10.45a1.585,1.585,0,0,0,1.583,1.583H4.346l4.675,2.8a.317.317,0,0,0,.453-.4L8.4,12.033h1.729v5.383A1.585,1.585,0,0,0,11.717,19h5.7A1.585,1.585,0,0,0,19,17.417V7.283A1.585,1.585,0,0,0,17.417,5.7Zm-4.637,5.915c.035-.032.068-.065.1-.1s.06-.071.089-.108.064-.086.092-.132a1.563,1.563,0,0,0,.091-.168c.014-.031.027-.063.039-.095a1.534,1.534,0,0,0,.062-.2c0-.02.011-.038.016-.058a1.514,1.514,0,0,0,.028-.222,2.193,2.193,0,0,1,1.27-.4A2.221,2.221,0,1,1,12.4,11.871c.016-.008.03-.018.046-.026a1.573,1.573,0,0,0,.248-.162C12.725,11.661,12.753,11.639,12.779,11.615ZM10.45,11.4H7.917a.317.317,0,0,0-.289.445l.859,1.934L4.6,11.445a.317.317,0,0,0-.163-.045H1.583a.951.951,0,0,1-.95-.95V1.583a.951.951,0,0,1,.95-.95H11.717a.951.951,0,0,1,.95.95V10.45a.934.934,0,0,1-.017.17c0,.022-.01.043-.016.065s-.017.061-.028.091-.02.053-.032.079-.02.037-.03.056a.955.955,0,0,1-.512.431l0,0a.941.941,0,0,1-.311.056Zm7.917,6.017a.951.951,0,0,1-.95.95h-5.7a.951.951,0,0,1-.95-.95V17.1h7.6Zm0-.95h-7.6V12.033h.95l.023,0a2.763,2.763,0,0,0-.023.319A2.861,2.861,0,1,0,13.3,9.8V8.233h5.067Zm0-8.867H13.3V6.333h4.117a.951.951,0,0,1,.95.95Z" transform="translate(0 0)"/>
        </g>
      </g>
      <g id="Group_2428" data-name="Group 2428" transform="translate(2.991 2.009)">
***REDACTED***
