<svg xmlns="http://www.w3.org/2000/svg" width="12" height="12" viewBox="0 0 12 12">
  <g id="veg" transform="translate(-329 -220)">
    <g id="Ellipse_6" data-name="Ellipse 6" transform="translate(329 220)" fill="none" stroke="#7cca66" stroke-width="1">
      <circle cx="6" cy="6" r="6" stroke="none"/>
      <circle cx="6" cy="6" r="5.5" fill="none"/>
    </g>
    <circle id="Ellipse_7" data-name="Ellipse 7" cx="3" cy="3" r="3" transform="translate(332 223)" fill="#7cca66"/>
  </g>
</svg>
***REDACTED***
