<?xml version="1.0" standalone="no"?>
<!DOCTYPE svg PUBLIC "-//W3C//DTD SVG 1.1//EN" "http://www.w3.org/Graphics/SVG/1.1/DTD/svg11.dtd" >
<svg xmlns="http://www.w3.org/2000/svg">
<metadata>
This is a custom SVG font generated by IcoMoon.
<iconset id="Simple Line Icons" name="Simple Line Icons" href="http://graphicburger.com/" grid="16"></iconset><author name="Raul Taciu" href="http://graphicburger.com/"></author><license name="Custom" href="http://graphicburger.com/license/"></license>
</metadata>
<defs>
<font id="Simple-Line-Icons" horiz-adv-x="512" >
<font-face units-per-em="512" ascent="480" descent="-32" />
***REDACTED***
